----------------------------------------------------------------
Wed May 23 15:29:58 BST 2018:
Booting Derby version The Apache Software Foundation - Apache Derby - 10.12.1.1 - (1704137): instance a816c00e-0163-8d68-13c4-00001fe98088 
on database directory /home/nery/workspace/remote/general-purpose/machine-learning/src/main/scala/data/metastore_db with class loader org.apache.spark.sql.hive.client.IsolatedClientLoader$$anon$1@3303e89e 
Loaded from file:/usr/share/spark/spark-2.2.0-bin-hadoop2.7/jars/derby-10.12.1.1.jar
java.vendor=Oracle Corporation
java.runtime.version=1.8.0_141-b15
user.dir=/home/nery/workspace/remote/general-purpose/machine-learning/src/main/scala/data
os.name=Linux
os.arch=amd64
os.version=4.13.0-41-generic
derby.system.home=null
Database Class Loader started - derby.database.classpath=''
